﻿"user_id","submission time","answer"
00000001,2021/10/14 12:30,"Student Services,Admissions"
00000002,2021/10/14 12:30,"Student Services,Admissions"
00000003,2021/10/14 12:30,"Student Services,Admissions"
00000004,2021/10/14 15:00,"Admissions,Career Management"
00000005,2021/10/14 12:30,"Career Management,The House"
00000006,2021/10/14 12:30,"Career Management,The House"
00000007,2021/10/14 12:30,"Career Management,The House"
00000008,2021/10/14 13:00,"Admissions,Student Services,Career Management,The House"
00000009,2021/10/14 14:00,"Admissions,The House,Career Management"
00000010,2021/10/14 12:30,"Admissions,Career Management,Student Services"